{
  "locale": "ru",
  "title": {
    "ru": ""
  },
  "description": {
    "ru": ""
  },
  "completedHtml": {
   "ru": "<div class=\"gif-block\"><div class=\"gif-block__header rf-H3\">Секундочку...</div><div class=\"gif-block__subheader rf-label\">Сохраняем ваш ценный ответ.<br /><br /><div class=\"rf-text\">Не закрывайте вкладку, пожалуйста.</div></div><div class=\"gif-block__bottom\"><img src=\"https://storage.yandexcloud.net/rf-diagnosticstool-static/images/img-family.svg\" alt=\"\" class=\"gif-block__bottom-image\"></div></div>"
  },
  "pages": [
   {
    "name": "page1",
    "elements": [
     {
      "type": "imagepicker",
      "name": "r_gender",
      "title": {
       "ru": "Укажите ваш пол"
      },
      "isRequired": true,
      "choices": [
       {
        "value": "female",
        "text": {
         "ru": "Женский"
        },
        "imageLink": {
         "ru": "https://storage.yandexcloud.net/rf-diagnosticstool-static/images/female.svg"
        }
       },
       {
        "value": "male",
        "text": {
         "ru": "Мужской"
        },
        "imageLink": {
         "ru": "https://storage.yandexcloud.net/rf-diagnosticstool-static/images/male.svg"
        }
       }
      ],
      "minImageWidth": 100,
      "minImageHeight": 100,
      "maxImageWidth": 100,
      "maxImageHeight": 100,
      "showLabel": true
     },
     {
      "type": "text",
      "name": "i_age",
      "title": {
       "default": "Как вас зовут?",
       "ru": "Сколько вам полных лет?"
      },
      "isRequired": true,
      "validators": [
       {
        "type": "numeric",
        "minValue": 7,
        "maxValue": 99
       }
      ],
      "placeholder": {
       "ru": "Укажите цифру"
      }
     },
     {
      "type": "text",
      "name": "i_class",
      "title": {
       "default": "Как вас зовут?",
       "ru": "В каком классе вы сейчас или какой закончили?"
      },
      "placeholder": {
       "ru": "Укажите цифру"
      },
      "dataList": {
       "ru": [
        "1",
        "2",
        "3",
        "4",
        "5",
        "6",
        "7",
        "8",
        "9",
        "10",
        "11",
        "12"
       ]
      },
       "isRequired": true,
       "validators": [
        {
         "type": "numeric",
         "minValue": 0,
         "maxValue": 12
        }
       ]
     }
    ],
    "title": {
     "ru": "Расскажите немного о себе"
    }
   },
   {
    "name": "page1",
    "elements": [
     {
      "type": "checkbox",
      "name": "question1",
      "title": {
       "ru": "Выпускники вашей школы..."
      },
      "description": {
       "ru": "Отметьте утверждения, с которыми согласны"
      },
      "isRequired": true,
      "choices": [
       {
        "value": "D1T1L3S1",
        "text": {
         "ru": "Ведут уроки и кружки, помогают с учёбой, являются тьюторами или наставниками"
        }
       },
       {
        "value": "D1T1L2S2",
        "text": {
         "ru": "Вместе с учениками школы участвуют в неформальных мероприятиях (походах, спортивных матчах, выступлениях и пр.)"
        }
       },
       {
        "value": "D1T1L2S3",
        "text": {
         "ru": "Приходят в школу на встречи с учениками, чтобы рассказать о своей профессии, карьере, жизненном опыте"
        }
       },
       {
        "value": "D1T1L1S4",
        "text": {
         "ru": "Вы или другие ученики собираете информацию о выпускниках, чтобы разместить ее на стендах или сайте школы"
        }
       }
      ],
      "hasNone": true,
      "noneText": {
       "ru": "Ничего из этого"
      }
     }
    ]
   },
   {
    "name": "page2",
    "elements": [
     {
      "type": "checkbox",
      "name": "question2",
      "title": {
       "ru": "В вашей школе..."
      },
      "description": {
       "ru": "Отметьте утверждения, с которыми согласны"
      },
      "isRequired": true,
      "choices": [
       {
        "value": "D2T1L1S1",
        "text": {
         "ru": "Учителя знакомились с вашей семьей (на собраниях или лично)"
        }
       },
       {
        "value": "D2T1L2S2",
        "text": {
         "ru": "Учителя/тьюторы минимум раз в месяц обсуждают с учениками их успехи и трудности"
        }
       },
       {
        "value": "D2T1L2S3",
        "text": {
         "ru": "Родители всегда могут позвонить или написать вашему классному руководителю"
        }
       },
       {
        "value": "D2T1L3S4",
        "text": {
         "ru": "Учителя/тьюторы вместе с вами и вашими родителями обсуждают учебный процесс, сильные/слабые стороны, запросы и составляют индивидуальный учебный план"
        }
       },
       {
        "value": "D2T3L1S5",
        "text": {
         "ru": "Есть условия для самостоятельной работы и творчества учеников: читальный зал, лаборатории, театр"
        }
       }
      ],
      "hasNone": true,
      "noneText": {
       "ru": "Ничего из этого"
      }
     }
    ]
   },
   {
    "name": "page3",
    "elements": [
     {
      "type": "checkbox",
      "name": "question3",
      "title": {
       "ru": "Учителя в вашей школе..."
      },
      "description": {
       "ru": "Отметьте утверждения, с которыми согласны"
      },
      "isRequired": true,
      "choices": [
       {
        "value": "D2T3L1S31",
        "text": {
         "ru": "Оставляют в тетрадях или дневнике конструктивные, мотивирующие комментарии"
        }
       },
       {
        "value": "D2T3L1S2",
        "text": {
         "ru": "Учителя/тьюторы помогают вести портфолио"
        }
       },
       {
        "value": "D2T3L2S33",
        "text": {
         "ru": "Хвалят тех, кто стал справляться лучше, чем раньше"
        }
       },
       {
        "value": "D2T3L2S4",
        "text": {
         "ru": "Не ругают вас с одноклассниками за ошибки"
        }
       },
       {
        "value": "D2T3L2S5",
        "text": {
         "ru": "Письменно или устно объясняют, с чем вы справляетесь, а над чем еще нужно поработать"
        }
       }
      ],
      "hasNone": true,
      "noneText": {
       "ru": "Ничего из этого"
      }
     }
    ]
   },
   {
    "name": "page4",
    "elements": [
     {
      "type": "checkbox",
      "name": "question4",
      "title": {
       "ru": "В вашей школе..."
      },
      "description": {
       "ru": "Отметьте утверждения, с которыми согласны"
      },
      "isRequired": true,
      "choices": [
       {
        "value": "D2T3L1S41",
        "text": {
         "ru": "Вы делаете проекты и проводите исследования на уроках и внеурочных занятиях"
        }
       },
       {
        "value": "D2T3L2S2",
        "text": {
         "ru": "Одноклассники радуются успехам друг друга"
        }
       },
       {
        "value": "D2T3L2S43",
        "text": {
         "ru": "Проводятся интеллектуальные игры, викторины, конференции и пр."
        }
       },
       {
        "value": "D2T3L3S4",
        "text": {
         "ru": "Учителя дают вам с одноклассниками разные задания: более простые – тем, кому труднее, и более сложные – тем, кто справляется легко"
        }
       },
       {
        "value": "D2T3L3S5",
        "text": {
         "ru": "Минимум раз в неделю каждый учитель объединяет вас с одноклассниками в группе, дает проблемные задания и организует дискуссию"
        }
       }
      ],
      "hasNone": true,
      "noneText": {
       "ru": "Ничего из этого"
      }
     }
    ]
   },
   {
    "name": "page5",
    "elements": [
     {
      "type": "checkbox",
      "name": "question5",
      "title": {
       "ru": "В вашей школе..."
      },
      "description": {
       "ru": "Отметьте утверждения, с которыми согласны"
      },
      "isRequired": true,
      "choices": [
       {
        "value": "D2T3L3S1",
        "text": {
         "ru": "Есть места для совместной и индивидуальной работы: лаборатории, стены для творчества, доски объявлений, поздравлений и т.д."
        }
       },
       {
        "value": "D2T3L3S2",
        "text": {
         "ru": "Все успехи учеников отмечаются публично, работы вывешиваются на видных местах в классе или школе"
        }
       },
       {
        "value": "D3T1L1S3",
        "text": {
         "ru": "Ученикам рассказывают о курсах, которые можно пройти в школе, в других местах или онлайн"
        }
       },
       {
        "value": "D3T1L1S4",
        "text": {
         "ru": "Учителя рассказывают ученикам о разных профессиях и о том, где можно им научиться"
        }
       },
       {
        "value": "D3T1L2S5",
        "text": {
         "ru": "Для учеников проводят встречи с людьми из колледжей и вузов, а также с людьми разных профессий"
        }
       }
      ],
      "hasNone": true,
      "noneText": {
       "ru": "Ничего из этого"
      }
     }
    ]
   },
   {
    "name": "page6",
    "elements": [
     {
      "type": "checkbox",
      "name": "question6",
      "title": {
       "ru": "В вашей школе..."
      },
      "description": {
       "ru": "Отметьте утверждения, с которыми согласны"
      },
      "isRequired": true,
      "choices": [
       {
        "value": "D3T1L2S1",
        "text": {
         "ru": "Ученики могут выбрать обучение в профильном классе (медицинский, инженерный, кадетский и т.п.)."
        }
       },
       {
        "value": "D3T1L3S2",
        "text": {
         "ru": "Ученики ходят на стажировки в колледжи, университеты, бизнес-компании и т.д. "
        }
       },
       {
        "value": "D3T2L1S3",
        "text": {
         "ru": "На мероприятиях выпускники и партнеры рассказывают ученикам об учебных программах вне школы"
        }
       },
       {
        "value": "D3T2L2S4",
        "text": {
         "ru": "Местные жители, партнеры, выпускники, организации приходят и рассказывают ученикам о своей профессии"
        }
       }
      ],
      "hasNone": true,
      "noneText": {
       "ru": "Ничего из этого"
      }
     }
    ]
   },
   {
    "name": "page7",
    "elements": [
     {
      "type": "checkbox",
      "name": "question7",
      "title": {
       "ru": "В вашей школе..."
      },
      "description": {
       "ru": "Отметьте утверждения, с которыми согласны"
      },
      "isRequired": true,
      "choices": [
       {
        "value": "D3T2L3S1",
        "text": {
         "ru": "Eсть место / страница / сайт с информацией про уроки, кружки и другие активности"
        }
       },
       {
        "value": "D3T2L3S2",
        "text": {
         "ru": "Проводят опросы учеников про то, нравится / не нравится в школе и о вашем участии в школьной жизни."
        }
       },
       {
        "value": "D3T3L1S3",
        "text": {
         "ru": "Ученики знают, что можно получить стипендию, гранты на обучение или образовательные поездки"
        }
       },
       {
        "value": "D3T3L3S4",
        "text": {
         "ru": "Некоторые ученики школы получают гранты, стипендии и другую поддержку от школы, местных жителей и организаций"
        }
       },
       {
        "value": "D4T1L2S5",
        "text": {
         "ru": "Проводят опросы учеников, чтобы узнать чтобы узнать мнение о качестве обучения и поменять что-то на уроках к лучшему"
        }
       },
       {
        "value": "D4T2L3S6",
        "text": {
         "ru": "Учителя создают и корректируют индивидуальные учебные планы для вас или ваших одноклассников"
        }
       }
      ],
      "hasNone": true,
      "noneText": {
       "ru": "Ничего из этого"
      }
     }
    ]
   },
   {
    "name": "page16",
    "elements": [
     {
      "type": "html",
      "name": "image1",
      "html": {
       "ru": "<div class=\"gif-block\"><div class=\"gif-block__image\"><img class=\"gif-block__image-img\"src=\"https://i.giphy.com/100QWMdxQJzQC4.gif\"sizes=\"100vw\" alt=\"\"><a href=\"https://giphy.com\" target=\"_blank\"  class=\"gif-block__image-copy\">via GIPHY</a></div><div class=\"gif-block__header rf-H3\">Так держать!</div><div class=\"gif-block__subheader rf-subheader\">Уже 10 вопросов позади!</div></div>"
      }
     }
    ]
   },
   {
    "name": "page8",
    "elements": [
     {
      "type": "checkbox",
      "name": "question8",
      "title": {
       "ru": "В вашей школе..."
      },
      "description": {
       "ru": "Отметьте утверждения, с которыми согласны"
      },
      "isRequired": true,
      "choices": [
       {
        "value": "D5T2L2S1",
        "text": {
         "ru": "Школа, родители и местное сообщество проводят общественные акции в поддержку семей (ярмарки вакансий, благотворительные матчи и др.)"
        }
       },
       {
        "value": "D6T1L2S2",
        "text": {
         "ru": "Есть служба, которая помогает решить спор или сложную ситуацию"
        }
       },
       {
        "value": "D6T1L2S3",
        "text": {
         "ru": "Вы или другие ученики состоите в школьной службе по урегулированию конфликтов"
        }
       },
       {
        "value": "D6T1L1S4",
        "text": {
         "ru": "Ученики знают, к кому обратиться, когда у них возникают конфликты"
        }
       }
      ],
      "hasNone": true,
      "noneText": {
       "ru": "Ничего из этого"
      }
     }
    ]
   },
   {
    "name": "page9",
    "elements": [
     {
      "type": "checkbox",
      "name": "question9",
      "title": {
       "ru": "В вашей школе..."
      },
      "description": {
       "ru": "Отметьте утверждения, с которыми согласны"
      },
      "isRequired": true,
      "choices": [
       {
        "value": "D6T2L3S1",
        "text": {
         "ru": "Ученики входят в управляющий совет школы"
        }
       },
       {
        "value": "D6T2L2S2",
        "text": {
         "ru": "Вы или другие ученики участвуете в управлении школой, взрослые учитывают ваши мнения"
        }
       },
       {
        "value": "D6T2L1S3",
        "text": {
         "ru": "Работает ученический совет"
        }
       }
      ],
      "hasNone": true,
      "noneText": {
       "ru": "Ничего из этого"
      }
     }
    ]
   },
   {
    "name": "page10",
    "elements": [
     {
      "type": "checkbox",
      "name": "question10",
      "title": {
       "ru": "В вашей школе..."
      },
      "description": {
       "ru": "Отметьте утверждения, с которыми согласны"
      },
      "isRequired": true,
      "choices": [
       {
        "value": "D7T1L3S1",
        "text": {
         "ru": "Вас знакомят с культурой и историей разных народов, которые представляют ученики вашей школы"
        }
       },
       {
        "value": "D7T1L2S2",
        "text": {
         "ru": "Вашим одноклассникам с особенностями здоровья помогает тьютор или для них есть специальные занятия"
        }
       },
       {
        "value": "D7T1L2S3",
        "text": {
         "ru": "Ученикам, для которых русский язык неродной, проводят дополнительные языковые уроки"
        }
       },
       {
        "value": "D7T2L2S4",
        "text": {
         "ru": "Для старшеклассников есть отдельное место, где можно пообщаться, отдохнуть или сделать домашнее задание"
        }
       },
       {
        "value": "D7T2L1S5",
        "text": {
         "ru": "В школе и на школьной территории оборудованы места для игр, досуга и общения"
        }
       }
      ],
      "hasNone": true,
      "noneText": {
       "ru": "Ничего из этого"
      }
     }
    ]
   },
   {
    "name": "page11",
    "elements": [
     {
      "type": "checkbox",
      "name": "question11",
      "title": {
       "ru": "Ваша школа..."
      },
      "description": {
       "ru": "Отметьте утверждения, с которыми согласны"
      },
      "isRequired": true,
      "choices": [
       {
        "value": "D8T1L3S1",
        "text": {
         "ru": "Помогает ученикам найти ресурсы и партнеров для социальных проектов"
        }
       },
       {
        "value": "D8T1L3S2",
        "text": {
         "ru": "Организует конкурсы социальных / волонтерских проектов"
        }
       },
       {
        "value": "D8T2L3S3",
        "text": {
         "ru": "Проводит обучающие занятия для волонтеров"
        }
       },
       {
        "value": "D8T2L2S4",
        "text": {
         "ru": "Регулярно проводит акции в поддержку волонтерства"
        }
       },
       {
        "value": "D8T2L1S5",
        "text": {
         "ru": "Поощряет волонтеров благодарственными письмами, публичной похвалой, освещением в СМИ"
        }
       }
      ],
      "hasNone": true,
      "noneText": {
       "ru": "Ничего из этого"
      }
     }
    ]
   },
   {
    "name": "page12",
    "elements": [
     {
      "type": "checkbox",
      "name": "question12",
      "title": {
       "ru": "Вы или другие ученики вашей школы..."
      },
      "description": {
       "ru": "Отметьте утверждения, с которыми согласны"
      },
      "isRequired": true,
      "choices": [
       {
        "value": "D8T2L3S1",
        "text": {
         "ru": "Разрабатываете волонтерские проекты"
        }
       },
       {
        "value": "D8T1L2S2",
        "text": {
         "ru": "Участвуете в планировании социальных / волонтерских проектов"
        }
       },
       {
        "value": "D8T1L1S3",
        "text": {
         "ru": "Можете сами принимать решение — участвовать или не участвовать в волонтерских проектах"
        }
       },
       {
        "value": "D8T1L1S4",
        "text": {
         "ru": "Участвуете в волонтерских проектах уровня школы"
        }
       },
       {
        "value": "D8T1L2S5",
        "text": {
         "ru": "Участвуете в волонтерских проектах уровня вашего района"
        }
       },
       {
        "value": "D8T1L3S6",
        "text": {
         "ru": "Участвуете в волонтерских проектах с партнерами из других районов, регионов или стран"
        }
       }
      ],
      "hasNone": true,
      "noneText": {
       "ru": "Ничего из этого"
      }
     }
    ]
   },
   {
    "name": "page13",
    "elements": [
     {
      "type": "checkbox",
      "name": "question13",
      "title": {
       "ru": "В вашей школе..."
      },
      "description": {
       "ru": "Отметьте утверждения, с которыми согласны"
      },
      "isRequired": true,
      "choices": [
       {
        "value": "D8T3L3S1",
        "text": {
         "ru": "Все желающие ученики оценивают волонтерские проекты"
        }
       },
       {
        "value": "D8T3L1S2",
        "text": {
         "ru": "Когда волонтерский проект завершился, вы лично участвуете в оценке его результатов"
        }
       },
       {
        "value": "D8T3L3S3",
        "text": {
         "ru": "Информация для оценки собирается из разных источников: школьная статистика, опросы, СМИ"
        }
       },
       {
        "value": "D8T3L3S4",
        "text": {
         "ru": "Проводят опросы учеников с подобными вопросами: чему я научился в ходе проекта? что узнал о себе и о людях? что смог и что хочу сделать?"
        }
       },
       {
        "value": "D8T3L2S5",
        "text": {
         "ru": "Проводят опросы о том, насколько вам были полезны волонтерские проекты, как они повлияли на вас"
        }
       }
      ],
      "hasNone": true,
      "noneText": {
       "ru": "Ничего из этого"
      }
     }
    ]
   },
   {
    "name": "page17",
    "elements": [
     {
      "type": "html",
      "name": "image2",
      "html": {
       "ru": "<div class=\"gif-block\"><div class=\"gif-block__image\"><img class=\"gif-block__image-img\"src=\"https://i.giphy.com/gVYk3rI8YjtAI.gif\"sizes=\"100vw\" alt=\"\"><a href=\"https://giphy.com\" target=\"_blank\"  class=\"gif-block__image-copy\">via GIPHY</a></div><div class=\"gif-block__header rf-H3\">Молодец!</div><div class=\"gif-block__subheader rf-subheader\">Еще 10 вопросов!</div></div>"
      }
     }
    ]
   },
   {
    "name": "page14",
    "elements": [
     {
      "type": "checkbox",
      "name": "question14",
      "title": {
       "ru": "Ваша школа..."
      },
      "description": {
       "ru": "Отметьте утверждения, с которыми согласны"
      },
      "isRequired": true,
      "choices": [
       {
        "value": "D9T1L3S1",
        "text": {
         "ru": "Общается с учениками через сайт / социальные сети / мессенджеры / листовки"
        }
       },
       {
        "value": "D9T1L2S2",
        "text": {
         "ru": "Регулярно общается с учениками: проводит опросы, общешкольные встречи и т.д."
        }
       },
       {
        "value": "D9T3L2S3",
        "text": {
         "ru": "Активно рассказывает о событиях в социальных сетях, где вы можете оставлять комментарии и делать репосты"
        }
       },
       {
        "value": "D9T3L2S4",
        "text": {
         "ru": "Дает ученикам участвовать в разработке дизайна и создании постов / статей для сайта или соцсетей"
        }
       },
       {
        "value": "D9T3L1S5",
        "text": {
         "ru": "Имеет неформальный сайт или страницу в соцсети, где рассказывает о главных событиях школы и сообщества"
        }
       }
      ],
      "hasNone": true,
      "noneText": {
       "ru": "Ничего из этого"
      }
     }
    ]
   },
   {
    "name": "page15",
    "elements": [
     {
      "type": "checkbox",
      "name": "question15",
      "title": {
       "ru": "Директор и администрация школы..."
      },
      "description": {
       "ru": "Отметьте утверждения, с которыми согласны"
      },
      "isRequired": true,
      "choices": [
       {
        "value": "D9T2L3S1",
        "text": {
         "ru": "Доступны очно или в мессенджерах и социальных сетях. К ним всегда можно зайти или написать"
        }
       },
       {
        "value": "D9T2L3S2",
        "text": {
         "ru": "Регулярно встречаются с учениками. Встречи проходят неформально и не только в здании школы"
        }
       }
      ],
      "hasNone": true,
      "noneText": {
       "ru": "Ничего из этого"
      }
     }
    ]
   },
   {
    "name": "page3",
    "elements": [
     {
      "type": "radiogroup",
      "name": "m_question16",
      "title": {
       "ru": "Вам нравится проводить время в школе"
      },
      "description": {
       "ru": "Насколько вы согласны с утверждением?"
      },
      "isRequired": true,
      "choices": [
       {
        "value": "Var1Q16",
        "text": {
         "ru": "Точно нет"
        }
       },
       {
        "value": "Var2Q16",
        "text": {
         "ru": "Скорее нет"
        }
       },
       {
        "value": "Var3Q16",
        "text": {
         "ru": "Скорее да"
        }
       },
       {
        "value": "Var4Q16",
        "text": {
         "ru": "Точно да"
        }
       }
      ]
     },
     {
      "type": "radiogroup",
      "name": "m_question17",
      "title": {
       "ru": "В школе отмечают хорошие поступки или достижения всех учащихся"
      },
      "description": {
       "ru": "Насколько вы согласны с утверждением?"
      },
      "isRequired": true,
      "choices": [
       {
        "value": "Var1Q17",
        "text": {
         "ru": "Точно нет"
        }
       },
       {
        "value": "Var2Q17",
        "text": {
         "ru": "Скорее нет"
        }
       },
       {
        "value": "Var3Q17",
        "text": {
         "ru": "Скорее да"
        }
       },
       {
        "value": "Var4Q17",
        "text": {
         "ru": "Точно да"
        }
       }
      ]
     },
     {
      "type": "radiogroup",
      "name": "m_question18",
      "title": {
       "ru": "Учителя и ученики безразличны по отношению друг к другу"
      },
      "description": {
       "ru": "Насколько вы согласны с утверждением?"
      },
      "isRequired": true,
      "choices": [
       {
        "value": "Var1Q18",
        "text": {
         "ru": "Точно нет"
        }
       },
       {
        "value": "Var2Q18",
        "text": {
         "ru": "Скорее нет"
        }
       },
       {
        "value": "Var3Q18",
        "text": {
         "ru": "Скорее да"
        }
       },
       {
        "value": "Var4Q18",
        "text": {
         "ru": "Точно да"
        }
       }
      ]
     },
     {
      "type": "radiogroup",
      "name": "m_question19",
      "title": {
       "ru": "В школе вы чувствуете себя в безопасности"
      },
      "description": {
       "ru": "Насколько вы согласны с утверждением?"
      },
      "isRequired": true,
      "choices": [
       {
        "value": "Var1Q19",
        "text": {
         "ru": "Точно нет"
        }
       },
       {
        "value": "Var2Q19",
        "text": {
         "ru": "Скорее нет"
        }
       },
       {
        "value": "Var3Q19",
        "text": {
         "ru": "Скорее да"
        }
       },
       {
        "value": "Var4Q19",
        "text": {
         "ru": "Точно да"
        }
       }
      ]
     },
     {
      "type": "radiogroup",
      "name": "m_question20",
      "title": {
       "ru": "Ученики вашей школы бывают жестокими по отношению друг к другу"
      },
      "description": {
       "ru": "Насколько вы согласны с утверждением?"
      },
      "isRequired": true,
      "choices": [
       {
        "value": "Var1Q20",
        "text": {
         "ru": "Точно нет"
        }
       },
       {
        "value": "Var2Q20",
        "text": {
         "ru": "Скорее нет"
        }
       },
       {
        "value": "Var3Q20",
        "text": {
         "ru": "Скорее да"
        }
       },
       {
        "value": "Var4Q20",
        "text": {
         "ru": "Точно да"
        }
       }
      ]
     },
     {
      "type": "radiogroup",
      "name": "m_question21",
      "title": {
       "ru": "Ученики готовы помочь друг другу"
      },
      "description": {
       "ru": "Насколько вы согласны с утверждением?"
      },
      "isRequired": true,
      "choices": [
       {
        "value": "Var1Q21",
        "text": {
         "ru": "Точно нет"
        }
       },
       {
        "value": "Var2Q21",
        "text": {
         "ru": "Скорее нет"
        }
       },
       {
        "value": "Var3Q21",
        "text": {
         "ru": "Скорее да"
        }
       },
       {
        "value": "Var4Q21",
        "text": {
         "ru": "Точно да"
        }
       }
      ]
     }
    ]
   },
   {
    "name": "page4",
    "elements": [
     {
      "type": "radiogroup",
      "name": "m_question22",
      "title": {
       "ru": "Вы любите читать дополнительные материалы по некоторым школьным предметам"
      },
      "description": {
       "ru": "Насколько вы согласны с этим утверждением?"
      },
      "isRequired": true,
      "choices": [
       {
        "value": "Var1Q22",
        "text": {
         "ru": "Точно нет"
        }
       },
       {
        "value": "Var2Q22",
        "text": {
         "ru": "Скорее нет"
        }
       },
       {
        "value": "Var3Q22",
        "text": {
         "ru": "Скорее да"
        }
       },
       {
        "value": "Var4Q22",
        "text": {
         "ru": "Точно да"
        }
       }
      ]
     },
     {
      "type": "radiogroup",
      "name": "m_question23",
      "title": {
       "ru": "То, что вы изучаете — важно, потому что это поможет в будущей профессии"
      },
      "description": {
       "ru": "Насколько вы согласны с этим утверждением?"
      },
      "isRequired": true,
      "choices": [
       {
        "value": "Var1Q23",
        "text": {
         "ru": "Точно нет"
        }
       },
       {
        "value": "Var2Q23",
        "text": {
         "ru": "Скорее нет"
        }
       },
       {
        "value": "Var3Q23",
        "text": {
         "ru": "Скорее да"
        }
       },
       {
        "value": "Var4Q23",
        "text": {
         "ru": "Точно да"
        }
       }
      ]
     },
     {
      "type": "radiogroup",
      "name": "m_question24",
      "title": {
       "ru": "То, что вы изучаете — важно, потому что это поможет в учебе в универе"
      },
      "description": {
       "ru": "Насколько вы согласны с этим утверждением?"
      },
      "isRequired": true,
      "choices": [
       {
        "value": "Var1Q24",
        "text": {
         "ru": "Точно нет"
        }
       },
       {
        "value": "Var2Q24",
        "text": {
         "ru": "Скорее нет"
        }
       },
       {
        "value": "Var3Q24",
        "text": {
         "ru": "Скорее да"
        }
       },
       {
        "value": "Var4Q24",
        "text": {
         "ru": "Точно да"
        }
       }
      ]
     },
     {
      "type": "radiogroup",
      "name": "m_question25",
      "title": {
       "ru": "Многое из того, что вы изучаете в школе, никак не поможет вам получить работу\n"
      },
      "description": {
       "ru": "Насколько вы согласны с этим утверждением?"
      },
      "isRequired": true,
      "choices": [
       {
        "value": "Var1Q25",
        "text": {
         "ru": "Точно нет"
        }
       },
       {
        "value": "Var2Q25",
        "text": {
         "ru": "Скорее нет"
        }
       },
       {
        "value": "Var3Q25",
        "text": {
         "ru": "Скорее да"
        }
       },
       {
        "value": "Var4Q25",
        "text": {
         "ru": "Точно да"
        }
       }
      ]
     }
    ]
   }
  ],
  "questionErrorLocation": "bottom",
  "showProgressBar": "top",
  "progressBarType": "questions",
  "goNextPageAutomatic": false,
  "requiredText": ""
 }